{
    "swagger": "2.0",
    "info": {
        "contact": {}
    },
    "paths": {
        "/admin/action/": {
            "post": {
                "description": "Создание действия",
                "consumes": [
                    "application/json"
                ],
                "produces": [
                    "application/json"
                ],
                "tags": [
                    "action"
                ],
                "summary": "Создание действия",
                "parameters": [
                    {
                        "description": "Action",
                        "name": "Action",
                        "in": "body",
                        "required": true,
                        "schema": {
                            "$ref": "#/definitions/http.actionRequest"
                        }
                    }
                ],
                "responses": {
                    "200": {
                        "description": "OK",
                        "schema": {
                            "$ref": "#/definitions/models.Action"
                        }
                    },
                    "400": {
                        "description": "Bad Request",
                        "schema": {
                            "$ref": "#/definitions/utils.HTTPError"
                        }
                    },
                    "404": {
                        "description": "Not Found",
                        "schema": {
                            "$ref": "#/definitions/utils.HTTPError"
                        }
                    },
                    "500": {
                        "description": "Internal Server Error",
                        "schema": {
                            "$ref": "#/definitions/utils.HTTPError"
                        }
                    }
                }
            }
        },
        "/admin/action/list": {
            "get": {
                "description": "Создание действия",
                "consumes": [
                    "application/json"
                ],
                "produces": [
                    "application/json"
                ],
                "tags": [
                    "action"
                ],
                "summary": "Получить все действия",
                "parameters": [
                    {
                        "type": "integer",
                        "description": "Page Number",
                        "name": "page",
                        "in": "query"
                    },
                    {
                        "type": "integer",
                        "description": "Page Size",
                        "name": "page_size",
                        "in": "query"
                    }
                ],
                "responses": {
                    "200": {
                        "description": "OK",
                        "schema": {
                            "$ref": "#/definitions/models.Action"
                        }
                    },
                    "400": {
                        "description": "Bad Request",
                        "schema": {
                            "$ref": "#/definitions/utils.HTTPError"
                        }
                    },
                    "404": {
                        "description": "Not Found",
                        "schema": {
                            "$ref": "#/definitions/utils.HTTPError"
                        }
                    },
                    "500": {
                        "description": "Internal Server Error",
                        "schema": {
                            "$ref": "#/definitions/utils.HTTPError"
                        }
                    }
                }
            }
        },
        "/admin/action/{action_id}": {
            "get": {
                "description": "Получение действия по иентификатору",
                "consumes": [
                    "application/json"
                ],
                "produces": [
                    "application/json"
                ],
                "tags": [
                    "action"
                ],
                "summary": "Получить действие",
                "parameters": [
                    {
                        "type": "string",
                        "description": "Action ID",
                        "name": "action_id",
                        "in": "path",
                        "required": true
                    }
                ],
                "responses": {
                    "200": {
                        "description": "OK",
                        "schema": {
                            "$ref": "#/definitions/models.Action"
                        }
                    },
                    "400": {
                        "description": "Bad Request",
                        "schema": {
                            "$ref": "#/definitions/utils.HTTPError"
                        }
                    },
                    "404": {
                        "description": "Not Found",
                        "schema": {
                            "$ref": "#/definitions/utils.HTTPError"
                        }
                    },
                    "500": {
                        "description": "Internal Server Error",
                        "schema": {
                            "$ref": "#/definitions/utils.HTTPError"
                        }
                    }
                }
            },
            "delete": {
                "description": "Создание действия",
                "consumes": [
                    "application/json"
                ],
                "produces": [
                    "application/json"
                ],
                "tags": [
                    "action"
                ],
                "summary": "Удалить действие",
                "parameters": [
                    {
                        "type": "string",
                        "description": "Action ID",
                        "name": "action_id",
                        "in": "path",
                        "required": true
                    }
                ],
                "responses": {
                    "200": {
                        "description": "OK",
                        "schema": {
                            "$ref": "#/definitions/models.Action"
                        }
                    },
                    "400": {
                        "description": "Bad Request",
                        "schema": {
                            "$ref": "#/definitions/utils.HTTPError"
                        }
                    },
                    "404": {
                        "description": "Not Found",
                        "schema": {
                            "$ref": "#/definitions/utils.HTTPError"
                        }
                    },
                    "500": {
                        "description": "Internal Server Error",
                        "schema": {
                            "$ref": "#/definitions/utils.HTTPError"
                        }
                    }
                }
            },
            "patch": {
                "description": "Создание действия по идентификатору",
                "consumes": [
                    "application/json"
                ],
                "produces": [
                    "application/json"
                ],
                "tags": [
                    "action"
                ],
                "summary": "Обновить действия",
                "parameters": [
                    {
                        "type": "string",
                        "description": "Action ID",
                        "name": "action_id",
                        "in": "path",
                        "required": true
                    },
                    {
                        "description": "Action",
                        "name": "Action",
                        "in": "body",
                        "required": true,
                        "schema": {
                            "$ref": "#/definitions/http.actionRequest"
                        }
                    }
                ],
                "responses": {
                    "200": {
                        "description": "OK",
                        "schema": {
                            "$ref": "#/definitions/models.Action"
                        }
                    },
                    "400": {
                        "description": "Bad Request",
                        "schema": {
                            "$ref": "#/definitions/utils.HTTPError"
                        }
                    },
                    "404": {
                        "description": "Not Found",
                        "schema": {
                            "$ref": "#/definitions/utils.HTTPError"
                        }
                    },
                    "500": {
                        "description": "Internal Server Error",
                        "schema": {
                            "$ref": "#/definitions/utils.HTTPError"
                        }
                    }
                }
            }
        },
        "/admin/object/": {
            "post": {
                "consumes": [
                    "application/json"
                ],
                "produces": [
                    "application/json"
                ],
                "tags": [
                    "object"
                ],
                "summary": "Создать объект",
                "parameters": [
                    {
                        "description": "Object",
                        "name": "object",
                        "in": "body",
                        "required": true,
                        "schema": {
                            "$ref": "#/definitions/http.objectRequest"
                        }
                    }
                ],
                "responses": {
                    "200": {
                        "description": "OK",
                        "schema": {
                            "$ref": "#/definitions/models.Object"
                        }
                    },
                    "400": {
                        "description": "Bad Request",
                        "schema": {
                            "$ref": "#/definitions/utils.HTTPError"
                        }
                    },
                    "404": {
                        "description": "Not Found",
                        "schema": {
                            "$ref": "#/definitions/utils.HTTPError"
                        }
                    },
                    "500": {
                        "description": "Internal Server Error",
                        "schema": {
                            "$ref": "#/definitions/utils.HTTPError"
                        }
                    }
                }
            }
        },
        "/admin/object/list": {
            "get": {
                "consumes": [
                    "application/json"
                ],
                "produces": [
                    "application/json"
                ],
                "tags": [
                    "object"
                ],
                "summary": "Получить список объектов",
                "parameters": [
                    {
                        "type": "integer",
                        "description": "Page size",
                        "name": "limit",
                        "in": "query"
                    },
                    {
                        "type": "integer",
                        "description": "Page",
                        "name": "page",
                        "in": "query"
                    }
                ],
                "responses": {
                    "200": {
                        "description": "OK",
                        "schema": {
                            "$ref": "#/definitions/models.Object"
                        }
                    },
                    "400": {
                        "description": "Bad Request",
                        "schema": {
                            "$ref": "#/definitions/utils.HTTPError"
                        }
                    },
                    "404": {
                        "description": "Not Found",
                        "schema": {
                            "$ref": "#/definitions/utils.HTTPError"
                        }
                    },
                    "500": {
                        "description": "Internal Server Error",
                        "schema": {
                            "$ref": "#/definitions/utils.HTTPError"
                        }
                    }
                }
            }
        },
        "/admin/object/{obj_id}": {
            "get": {
                "consumes": [
                    "application/json"
                ],
                "produces": [
                    "application/json"
                ],
                "tags": [
                    "object"
                ],
                "summary": "Получить объект",
                "parameters": [
                    {
                        "type": "string",
                        "description": "Object ID",
                        "name": "obj_id",
                        "in": "path",
                        "required": true
                    }
                ],
                "responses": {
                    "200": {
                        "description": "OK",
                        "schema": {
                            "$ref": "#/definitions/models.Object"
                        }
                    },
                    "400": {
                        "description": "Bad Request",
                        "schema": {
                            "$ref": "#/definitions/utils.HTTPError"
                        }
                    },
                    "404": {
                        "description": "Not Found",
                        "schema": {
                            "$ref": "#/definitions/utils.HTTPError"
                        }
                    },
                    "500": {
                        "description": "Internal Server Error",
                        "schema": {
                            "$ref": "#/definitions/utils.HTTPError"
                        }
                    }
                }
            },
            "delete": {
                "consumes": [
                    "application/json"
                ],
                "produces": [
                    "application/json"
                ],
                "tags": [
                    "object"
                ],
                "summary": "Удалить объект",
                "parameters": [
                    {
                        "type": "string",
                        "description": "Object ID",
                        "name": "obj_id",
                        "in": "path",
                        "required": true
                    }
                ],
                "responses": {
                    "200": {
                        "description": "OK",
                        "schema": {
                            "$ref": "#/definitions/models.Object"
                        }
                    },
                    "400": {
                        "description": "Bad Request",
                        "schema": {
                            "$ref": "#/definitions/utils.HTTPError"
                        }
                    },
                    "404": {
                        "description": "Not Found",
                        "schema": {
                            "$ref": "#/definitions/utils.HTTPError"
                        }
                    },
                    "500": {
                        "description": "Internal Server Error",
                        "schema": {
                            "$ref": "#/definitions/utils.HTTPError"
                        }
                    }
                }
            },
            "patch": {
                "consumes": [
                    "application/json"
                ],
                "produces": [
                    "application/json"
                ],
                "tags": [
                    "object"
                ],
                "summary": "Обновить объект",
                "parameters": [
                    {
                        "type": "string",
                        "description": "Object ID",
                        "name": "obj_id",
                        "in": "path",
                        "required": true
                    },
                    {
                        "description": "Object",
                        "name": "object",
                        "in": "body",
                        "required": true,
                        "schema": {
                            "$ref": "#/definitions/http.objectRequest"
                        }
                    }
                ],
                "responses": {
                    "200": {
                        "description": "OK",
                        "schema": {
                            "$ref": "#/definitions/models.Object"
                        }
                    },
                    "400": {
                        "description": "Bad Request",
                        "schema": {
                            "$ref": "#/definitions/utils.HTTPError"
                        }
                    },
                    "404": {
                        "description": "Not Found",
                        "schema": {
                            "$ref": "#/definitions/utils.HTTPError"
                        }
                    },
                    "500": {
                        "description": "Internal Server Error",
                        "schema": {
                            "$ref": "#/definitions/utils.HTTPError"
                        }
                    }
                }
            }
        },
        "/admin/permission/": {
            "post": {
                "consumes": [
                    "application/json"
                ],
                "produces": [
                    "application/json"
                ],
                "tags": [
                    "permission"
                ],
                "summary": "Получить разрешение",
                "parameters": [
                    {
                        "description": "Permission",
                        "name": "permission",
                        "in": "body",
                        "required": true,
                        "schema": {
                            "$ref": "#/definitions/http.permissionRequest"
                        }
                    }
                ],
                "responses": {
                    "200": {
                        "description": "OK",
                        "schema": {
                            "$ref": "#/definitions/models.Permission"
                        }
                    },
                    "400": {
                        "description": "Bad Request",
                        "schema": {
                            "$ref": "#/definitions/utils.HTTPError"
                        }
                    },
                    "404": {
                        "description": "Not Found",
                        "schema": {
                            "$ref": "#/definitions/utils.HTTPError"
                        }
                    },
                    "500": {
                        "description": "Internal Server Error",
                        "schema": {
                            "$ref": "#/definitions/utils.HTTPError"
                        }
                    }
                }
            }
        },
        "/admin/permission/list": {
            "get": {
                "consumes": [
                    "application/json"
                ],
                "produces": [
                    "application/json"
                ],
                "tags": [
                    "permission"
                ],
                "summary": "Получить разрешение",
                "parameters": [
                    {
                        "type": "string",
                        "description": "Page number",
                        "name": "page",
                        "in": "query",
                        "required": true
                    },
                    {
                        "type": "string",
                        "description": "Page Size",
                        "name": "page_size",
                        "in": "query",
                        "required": true
                    }
                ],
                "responses": {
                    "200": {
                        "description": "OK",
                        "schema": {
                            "$ref": "#/definitions/models.Permission"
                        }
                    },
                    "400": {
                        "description": "Bad Request",
                        "schema": {
                            "$ref": "#/definitions/utils.HTTPError"
                        }
                    },
                    "404": {
                        "description": "Not Found",
                        "schema": {
                            "$ref": "#/definitions/utils.HTTPError"
                        }
                    },
                    "500": {
                        "description": "Internal Server Error",
                        "schema": {
                            "$ref": "#/definitions/utils.HTTPError"
                        }
                    }
                }
            }
        },
        "/admin/permission/{permission_id}": {
            "patch": {
                "consumes": [
                    "application/json"
                ],
                "produces": [
                    "application/json"
                ],
                "tags": [
                    "permission"
                ],
                "summary": "Получить разрешение",
                "parameters": [
                    {
                        "type": "string",
                        "description": "Permission ID",
                        "name": "permission_id",
                        "in": "path",
                        "required": true
                    },
                    {
                        "description": "Permission",
                        "name": "permission",
                        "in": "body",
                        "required": true,
                        "schema": {
                            "$ref": "#/definitions/http.permissionRequest"
                        }
                    }
                ],
                "responses": {
                    "200": {
                        "description": "OK",
                        "schema": {
                            "$ref": "#/definitions/models.Permission"
                        }
                    },
                    "400": {
                        "description": "Bad Request",
                        "schema": {
                            "$ref": "#/definitions/utils.HTTPError"
                        }
                    },
                    "404": {
                        "description": "Not Found",
                        "schema": {
                            "$ref": "#/definitions/utils.HTTPError"
                        }
                    },
                    "500": {
                        "description": "Internal Server Error",
                        "schema": {
                            "$ref": "#/definitions/utils.HTTPError"
                        }
                    }
                }
            }
        },
        "/admin/permission{permission_id}": {
            "get": {
                "consumes": [
                    "application/json"
                ],
                "produces": [
                    "application/json"
                ],
                "tags": [
                    "permission"
                ],
                "summary": "Получить разрешение",
                "parameters": [
                    {
                        "type": "string",
                        "description": "Object ID",
                        "name": "permission_id",
                        "in": "path",
                        "required": true
                    }
                ],
                "responses": {
                    "200": {
                        "description": "OK",
                        "schema": {
                            "$ref": "#/definitions/models.Permission"
                        }
                    },
                    "400": {
                        "description": "Bad Request",
                        "schema": {
                            "$ref": "#/definitions/utils.HTTPError"
                        }
                    },
                    "404": {
                        "description": "Not Found",
                        "schema": {
                            "$ref": "#/definitions/utils.HTTPError"
                        }
                    },
                    "500": {
                        "description": "Internal Server Error",
                        "schema": {
                            "$ref": "#/definitions/utils.HTTPError"
                        }
                    }
                }
            },
            "delete": {
                "consumes": [
                    "application/json"
                ],
                "produces": [
                    "application/json"
                ],
                "tags": [
                    "permission"
                ],
                "summary": "Удалить разрешение",
                "parameters": [
                    {
                        "type": "string",
                        "description": "Object ID",
                        "name": "permission_id",
                        "in": "path",
                        "required": true
                    }
                ],
                "responses": {
                    "200": {
                        "description": "OK",
                        "schema": {
                            "$ref": "#/definitions/models.Permission"
                        }
                    },
                    "400": {
                        "description": "Bad Request",
                        "schema": {
                            "$ref": "#/definitions/utils.HTTPError"
                        }
                    },
                    "404": {
                        "description": "Not Found",
                        "schema": {
                            "$ref": "#/definitions/utils.HTTPError"
                        }
                    },
                    "500": {
                        "description": "Internal Server Error",
                        "schema": {
                            "$ref": "#/definitions/utils.HTTPError"
                        }
                    }
                }
            }
        },
        "/admin/resource/": {
            "post": {
                "consumes": [
                    "application/json"
                ],
                "produces": [
                    "application/json"
                ],
                "tags": [
                    "resource"
                ],
                "summary": "Создать ресурс",
                "parameters": [
                    {
                        "description": "Resource",
                        "name": "resource",
                        "in": "body",
                        "required": true,
                        "schema": {
                            "$ref": "#/definitions/http.resourceRequest"
                        }
                    }
                ],
                "responses": {
                    "200": {
                        "description": "OK",
                        "schema": {
                            "$ref": "#/definitions/models.Permission"
                        }
                    },
                    "400": {
                        "description": "Bad Request",
                        "schema": {
                            "$ref": "#/definitions/utils.HTTPError"
                        }
                    },
                    "404": {
                        "description": "Not Found",
                        "schema": {
                            "$ref": "#/definitions/utils.HTTPError"
                        }
                    },
                    "500": {
                        "description": "Internal Server Error",
                        "schema": {
                            "$ref": "#/definitions/utils.HTTPError"
                        }
                    }
                }
            }
        },
        "/admin/resource/list": {
            "get": {
                "consumes": [
                    "application/json"
                ],
                "produces": [
                    "application/json"
                ],
                "tags": [
                    "resource"
                ],
                "summary": "Получить список ресурсов",
                "parameters": [
                    {
                        "type": "string",
                        "description": "Page number",
                        "name": "page",
                        "in": "query",
                        "required": true
                    },
                    {
                        "type": "string",
                        "description": "Page Size",
                        "name": "page_size",
                        "in": "query",
                        "required": true
                    }
                ],
                "responses": {
                    "200": {
                        "description": "OK",
                        "schema": {
                            "$ref": "#/definitions/models.Permission"
                        }
                    },
                    "400": {
                        "description": "Bad Request",
                        "schema": {
                            "$ref": "#/definitions/utils.HTTPError"
                        }
                    },
                    "404": {
                        "description": "Not Found",
                        "schema": {
                            "$ref": "#/definitions/utils.HTTPError"
                        }
                    },
                    "500": {
                        "description": "Internal Server Error",
                        "schema": {
                            "$ref": "#/definitions/utils.HTTPError"
                        }
                    }
                }
            }
        },
        "/admin/resource/{resource_id}": {
            "get": {
                "consumes": [
                    "application/json"
                ],
                "produces": [
                    "application/json"
                ],
                "tags": [
                    "resource"
                ],
                "summary": "Получить ресурс",
                "parameters": [
                    {
                        "type": "string",
                        "description": "Resource ID",
                        "name": "resource_id",
                        "in": "path",
                        "required": true
                    }
                ],
                "responses": {
                    "200": {
                        "description": "OK",
                        "schema": {
                            "$ref": "#/definitions/models.Permission"
                        }
                    },
                    "400": {
                        "description": "Bad Request",
                        "schema": {
                            "$ref": "#/definitions/utils.HTTPError"
                        }
                    },
                    "404": {
                        "description": "Not Found",
                        "schema": {
                            "$ref": "#/definitions/utils.HTTPError"
                        }
                    },
                    "500": {
                        "description": "Internal Server Error",
                        "schema": {
                            "$ref": "#/definitions/utils.HTTPError"
                        }
                    }
                }
            },
            "delete": {
                "consumes": [
                    "application/json"
                ],
                "produces": [
                    "application/json"
                ],
                "tags": [
                    "resource"
                ],
                "summary": "Удалить ресурс",
                "parameters": [
                    {
                        "type": "string",
                        "description": "Resource ID",
                        "name": "resource_id",
                        "in": "path",
                        "required": true
                    }
                ],
                "responses": {
                    "200": {
                        "description": "OK",
                        "schema": {
                            "$ref": "#/definitions/models.Permission"
                        }
                    },
                    "400": {
                        "description": "Bad Request",
                        "schema": {
                            "$ref": "#/definitions/utils.HTTPError"
                        }
                    },
                    "404": {
                        "description": "Not Found",
                        "schema": {
                            "$ref": "#/definitions/utils.HTTPError"
                        }
                    },
                    "500": {
                        "description": "Internal Server Error",
                        "schema": {
                            "$ref": "#/definitions/utils.HTTPError"
                        }
                    }
                }
            },
            "patch": {
                "consumes": [
                    "application/json"
                ],
                "produces": [
                    "application/json"
                ],
                "tags": [
                    "resource"
                ],
                "summary": "Обновить ресурс",
                "parameters": [
                    {
                        "type": "string",
                        "description": "Resource ID",
                        "name": "resource_id",
                        "in": "path",
                        "required": true
                    },
                    {
                        "description": "Resource",
                        "name": "resource",
                        "in": "body",
                        "required": true,
                        "schema": {
                            "$ref": "#/definitions/http.resourceRequest"
                        }
                    }
                ],
                "responses": {
                    "200": {
                        "description": "OK",
                        "schema": {
                            "$ref": "#/definitions/models.Resource"
                        }
                    },
                    "400": {
                        "description": "Bad Request",
                        "schema": {
                            "$ref": "#/definitions/utils.HTTPError"
                        }
                    },
                    "404": {
                        "description": "Not Found",
                        "schema": {
                            "$ref": "#/definitions/utils.HTTPError"
                        }
                    },
                    "500": {
                        "description": "Internal Server Error",
                        "schema": {
                            "$ref": "#/definitions/utils.HTTPError"
                        }
                    }
                }
            }
        },
        "/admin/role/": {
            "post": {
                "consumes": [
                    "application/json"
                ],
                "produces": [
                    "application/json"
                ],
                "tags": [
                    "role"
                ],
                "summary": "Создать роль",
                "parameters": [
                    {
                        "description": "Role",
                        "name": "role",
                        "in": "body",
                        "required": true,
                        "schema": {
                            "$ref": "#/definitions/http.roleRequest"
                        }
                    }
                ],
                "responses": {
                    "200": {
                        "description": "OK",
                        "schema": {
                            "$ref": "#/definitions/models.Role"
                        }
                    },
                    "400": {
                        "description": "Bad Request",
                        "schema": {
                            "$ref": "#/definitions/utils.HTTPError"
                        }
                    },
                    "404": {
                        "description": "Not Found",
                        "schema": {
                            "$ref": "#/definitions/utils.HTTPError"
                        }
                    },
                    "500": {
                        "description": "Internal Server Error",
                        "schema": {
                            "$ref": "#/definitions/utils.HTTPError"
                        }
                    }
                }
            }
        },
        "/admin/role/list": {
            "get": {
                "consumes": [
                    "application/json"
                ],
                "produces": [
                    "application/json"
                ],
                "tags": [
                    "role"
                ],
                "summary": "Получить список ролей",
                "parameters": [
                    {
                        "type": "string",
                        "description": "Page number",
                        "name": "page",
                        "in": "query",
                        "required": true
                    },
                    {
                        "type": "string",
                        "description": "Page Size",
                        "name": "page_size",
                        "in": "query",
                        "required": true
                    }
                ],
                "responses": {
                    "200": {
                        "description": "OK",
                        "schema": {
                            "$ref": "#/definitions/models.Role"
                        }
                    },
                    "400": {
                        "description": "Bad Request",
                        "schema": {
                            "$ref": "#/definitions/utils.HTTPError"
                        }
                    },
                    "404": {
                        "description": "Not Found",
                        "schema": {
                            "$ref": "#/definitions/utils.HTTPError"
                        }
                    },
                    "500": {
                        "description": "Internal Server Error",
                        "schema": {
                            "$ref": "#/definitions/utils.HTTPError"
                        }
                    }
                }
            }
        },
        "/admin/role/{role_id}": {
            "get": {
                "consumes": [
                    "application/json"
                ],
                "produces": [
                    "application/json"
                ],
                "tags": [
                    "role"
                ],
                "summary": "Получить роль",
                "parameters": [
                    {
                        "type": "string",
                        "description": "Role ID",
                        "name": "role_id",
                        "in": "path",
                        "required": true
                    }
                ],
                "responses": {
                    "200": {
                        "description": "OK",
                        "schema": {
                            "$ref": "#/definitions/models.Role"
                        }
                    },
                    "400": {
                        "description": "Bad Request",
                        "schema": {
                            "$ref": "#/definitions/utils.HTTPError"
                        }
                    },
                    "404": {
                        "description": "Not Found",
                        "schema": {
                            "$ref": "#/definitions/utils.HTTPError"
                        }
                    },
                    "500": {
                        "description": "Internal Server Error",
                        "schema": {
                            "$ref": "#/definitions/utils.HTTPError"
                        }
                    }
                }
            },
            "delete": {
                "consumes": [
                    "application/json"
                ],
                "produces": [
                    "application/json"
                ],
                "tags": [
                    "role"
                ],
                "summary": "Удалить роль",
                "parameters": [
                    {
                        "type": "string",
                        "description": "Role ID",
                        "name": "role_id",
                        "in": "path",
                        "required": true
                    }
                ],
                "responses": {
                    "200": {
                        "description": "OK",
                        "schema": {
                            "$ref": "#/definitions/models.Role"
                        }
                    },
                    "400": {
                        "description": "Bad Request",
                        "schema": {
                            "$ref": "#/definitions/utils.HTTPError"
                        }
                    },
                    "404": {
                        "description": "Not Found",
                        "schema": {
                            "$ref": "#/definitions/utils.HTTPError"
                        }
                    },
                    "500": {
                        "description": "Internal Server Error",
                        "schema": {
                            "$ref": "#/definitions/utils.HTTPError"
                        }
                    }
                }
            },
            "patch": {
                "consumes": [
                    "application/json"
                ],
                "produces": [
                    "application/json"
                ],
                "tags": [
                    "role"
                ],
                "summary": "Обновить роль",
                "parameters": [
                    {
                        "description": "Role",
                        "name": "role",
                        "in": "body",
                        "required": true,
                        "schema": {
                            "$ref": "#/definitions/http.roleRequest"
                        }
                    },
                    {
                        "type": "string",
                        "description": "Role ID",
                        "name": "role_id",
                        "in": "path",
                        "required": true
                    }
                ],
                "responses": {
                    "200": {
                        "description": "OK",
                        "schema": {
                            "$ref": "#/definitions/models.Role"
                        }
                    },
                    "400": {
                        "description": "Bad Request",
                        "schema": {
                            "$ref": "#/definitions/utils.HTTPError"
                        }
                    },
                    "404": {
                        "description": "Not Found",
                        "schema": {
                            "$ref": "#/definitions/utils.HTTPError"
                        }
                    },
                    "500": {
                        "description": "Internal Server Error",
                        "schema": {
                            "$ref": "#/definitions/utils.HTTPError"
                        }
                    }
                }
            }
        },
        "/admin/user/": {
            "post": {
                "description": "Не реализовано!!!",
                "consumes": [
                    "application/json"
                ],
                "produces": [
                    "application/json"
                ],
                "tags": [
                    "user"
                ],
                "summary": "Создать пользователя",
                "deprecated": true,
                "parameters": [
                    {
                        "description": "User",
                        "name": "user",
                        "in": "body",
                        "required": true,
                        "schema": {
                            "$ref": "#/definitions/http.roleRequest"
                        }
                    }
                ],
                "responses": {
                    "200": {
                        "description": "OK",
                        "schema": {
                            "$ref": "#/definitions/models.Role"
                        }
                    },
                    "400": {
                        "description": "Bad Request",
                        "schema": {
                            "$ref": "#/definitions/utils.HTTPError"
                        }
                    },
                    "404": {
                        "description": "Not Found",
                        "schema": {
                            "$ref": "#/definitions/utils.HTTPError"
                        }
                    },
                    "500": {
                        "description": "Internal Server Error",
                        "schema": {
                            "$ref": "#/definitions/utils.HTTPError"
                        }
                    }
                }
            }
        },
        "/admin/user/list": {
            "get": {
                "consumes": [
                    "application/json"
                ],
                "produces": [
                    "application/json"
                ],
                "tags": [
                    "user"
                ],
                "summary": "Получить список пользователей",
                "parameters": [
                    {
                        "type": "string",
                        "description": "Page number",
                        "name": "page",
                        "in": "query",
                        "required": true
                    },
                    {
                        "type": "string",
                        "description": "Page Size",
                        "name": "page_size",
                        "in": "query",
                        "required": true
                    }
                ],
                "responses": {
                    "200": {
                        "description": "OK",
                        "schema": {
                            "$ref": "#/definitions/models.Role"
                        }
                    },
                    "400": {
                        "description": "Bad Request",
                        "schema": {
                            "$ref": "#/definitions/utils.HTTPError"
                        }
                    },
                    "404": {
                        "description": "Not Found",
                        "schema": {
                            "$ref": "#/definitions/utils.HTTPError"
                        }
                    },
                    "500": {
                        "description": "Internal Server Error",
                        "schema": {
                            "$ref": "#/definitions/utils.HTTPError"
                        }
                    }
                }
            }
        },
        "/admin/user/{role_id}": {
            "patch": {
                "description": "Не реализовано!!!",
                "consumes": [
                    "application/json"
                ],
                "produces": [
                    "application/json"
                ],
                "tags": [
                    "user"
                ],
                "summary": "Обновить пользователя",
                "deprecated": true,
                "parameters": [
                    {
                        "description": "Role",
                        "name": "user",
                        "in": "body",
                        "required": true,
                        "schema": {
                            "$ref": "#/definitions/http.roleRequest"
                        }
                    },
                    {
                        "type": "string",
                        "description": "Role ID",
                        "name": "user_id",
                        "in": "path",
                        "required": true
                    }
                ],
                "responses": {
                    "200": {
                        "description": "OK",
                        "schema": {
                            "$ref": "#/definitions/models.Role"
                        }
                    },
                    "400": {
                        "description": "Bad Request",
                        "schema": {
                            "$ref": "#/definitions/utils.HTTPError"
                        }
                    },
                    "404": {
                        "description": "Not Found",
                        "schema": {
                            "$ref": "#/definitions/utils.HTTPError"
                        }
                    },
                    "500": {
                        "description": "Internal Server Error",
                        "schema": {
                            "$ref": "#/definitions/utils.HTTPError"
                        }
                    }
                }
            }
        },
        "/admin/user/{user_id}": {
            "get": {
                "consumes": [
                    "application/json"
                ],
                "produces": [
                    "application/json"
                ],
                "tags": [
                    "user"
                ],
                "summary": "Получить пользователя",
                "parameters": [
                    {
                        "type": "string",
                        "description": "User ID",
                        "name": "user_id",
                        "in": "path",
                        "required": true
                    }
                ],
                "responses": {
                    "200": {
                        "description": "OK",
                        "schema": {
                            "$ref": "#/definitions/models.Role"
                        }
                    },
                    "400": {
                        "description": "Bad Request",
                        "schema": {
                            "$ref": "#/definitions/utils.HTTPError"
                        }
                    },
                    "404": {
                        "description": "Not Found",
                        "schema": {
                            "$ref": "#/definitions/utils.HTTPError"
                        }
                    },
                    "500": {
                        "description": "Internal Server Error",
                        "schema": {
                            "$ref": "#/definitions/utils.HTTPError"
                        }
                    }
                }
            },
            "delete": {
                "description": "Не реализовано!!!",
                "consumes": [
                    "application/json"
                ],
                "produces": [
                    "application/json"
                ],
                "tags": [
                    "user"
                ],
                "summary": "Удалить пользователя",
                "deprecated": true,
                "parameters": [
                    {
                        "type": "string",
                        "description": "Role ID",
                        "name": "user_id",
                        "in": "path",
                        "required": true
                    }
                ],
                "responses": {
                    "200": {
                        "description": "OK",
                        "schema": {
                            "$ref": "#/definitions/models.Role"
                        }
                    },
                    "400": {
                        "description": "Bad Request",
                        "schema": {
                            "$ref": "#/definitions/utils.HTTPError"
                        }
                    },
                    "404": {
                        "description": "Not Found",
                        "schema": {
                            "$ref": "#/definitions/utils.HTTPError"
                        }
                    },
                    "500": {
                        "description": "Internal Server Error",
                        "schema": {
                            "$ref": "#/definitions/utils.HTTPError"
                        }
                    }
                }
            }
        },
        "/api/auth/": {
            "post": {
                "consumes": [
                    "application/json"
                ],
                "produces": [
                    "application/json"
                ],
                "tags": [
                    "auth"
                ],
                "summary": "Вход пользователя",
                "parameters": [
                    {
                        "description": "Login Data",
                        "name": "user",
                        "in": "body",
                        "required": true,
                        "schema": {
                            "$ref": "#/definitions/http.loginRequest"
                        }
                    }
                ],
                "responses": {
                    "200": {
                        "description": "OK",
                        "schema": {
                            "$ref": "#/definitions/token.Tokens"
                        }
                    },
                    "400": {
                        "description": "Bad Request",
                        "schema": {
                            "$ref": "#/definitions/utils.HTTPError"
                        }
                    },
                    "404": {
                        "description": "Not Found",
                        "schema": {
                            "$ref": "#/definitions/utils.HTTPError"
                        }
                    },
                    "500": {
                        "description": "Internal Server Error",
                        "schema": {
                            "$ref": "#/definitions/utils.HTTPError"
                        }
                    }
                }
            }
        },
        "/api/auth/register": {
            "post": {
                "consumes": [
                    "application/json"
                ],
                "produces": [
                    "application/json"
                ],
                "tags": [
                    "auth"
                ],
                "summary": "Обновление токенов",
                "parameters": [
                    {
                        "description": "Refresh Data",
                        "name": "user",
                        "in": "body",
                        "required": true,
                        "schema": {
                            "$ref": "#/definitions/http.refreshRequest"
                        }
                    }
                ],
                "responses": {
                    "200": {
                        "description": "OK",
                        "schema": {
                            "$ref": "#/definitions/token.Tokens"
                        }
                    },
                    "400": {
                        "description": "Bad Request",
                        "schema": {
                            "$ref": "#/definitions/utils.HTTPError"
                        }
                    },
                    "404": {
                        "description": "Not Found",
                        "schema": {
                            "$ref": "#/definitions/utils.HTTPError"
                        }
                    },
                    "500": {
                        "description": "Internal Server Error",
                        "schema": {
                            "$ref": "#/definitions/utils.HTTPError"
                        }
                    }
                }
            }
        },
        "/api/user/register": {
            "post": {
                "consumes": [
                    "application/json"
                ],
                "produces": [
                    "application/json"
                ],
                "tags": [
                    "user"
                ],
                "summary": "Регистрация пользователя",
                "parameters": [
                    {
                        "description": "User",
                        "name": "user",
                        "in": "body",
                        "required": true,
                        "schema": {
                            "$ref": "#/definitions/http.registerRequest"
                        }
                    }
                ],
                "responses": {
                    "200": {
                        "description": "OK",
                        "schema": {
                            "$ref": "#/definitions/models.User"
                        }
                    },
                    "400": {
                        "description": "Bad Request",
                        "schema": {
                            "$ref": "#/definitions/utils.HTTPError"
                        }
                    },
                    "404": {
                        "description": "Not Found",
                        "schema": {
                            "$ref": "#/definitions/utils.HTTPError"
                        }
                    },
                    "500": {
                        "description": "Internal Server Error",
                        "schema": {
                            "$ref": "#/definitions/utils.HTTPError"
                        }
                    }
                }
            }
        }
    },
    "definitions": {
        "http.actionRequest": {
            "type": "object",
            "required": [
                "action",
                "name"
            ],
            "properties": {
                "action": {
                    "type": "string"
                },
                "name": {
                    "type": "string"
                }
            }
        },
        "http.loginRequest": {
            "type": "object",
            "properties": {
                "password": {
                    "type": "string"
                },
                "username": {
                    "type": "string"
                }
            }
        },
        "http.objectRequest": {
            "type": "object",
            "properties": {
                "name": {
                    "type": "string"
                }
            }
        },
        "http.permissionRequest": {
            "type": "object",
            "properties": {
                "action_id": {
                    "type": "string"
                },
                "name": {
                    "type": "string"
                },
                "object_id": {
                    "type": "string"
                }
            }
        },
        "http.refreshRequest": {
            "type": "object",
            "properties": {
                "refresh": {
                    "type": "string"
                }
            }
        },
        "http.registerRequest": {
            "type": "object",
            "properties": {
                "email": {
                    "type": "string"
                },
                "password": {
                    "type": "string"
                },
                "username": {
                    "type": "string"
                }
            }
        },
        "http.resourceRequest": {
            "type": "object",
            "properties": {
                "description": {
                    "type": "string"
                },
                "name": {
                    "type": "string"
                },
                "roles": {
                    "type": "array",
                    "items": {
                        "type": "string"
                    }
                }
            }
        },
        "http.roleRequest": {
            "type": "object",
            "properties": {
                "name": {
                    "type": "string"
                },
                "permissions": {
                    "type": "array",
                    "items": {
                        "type": "string"
                    }
                }
            }
        },
        "models.Action": {
            "type": "object",
            "properties": {
                "action": {
                    "description": "Action name can do with Object",
                    "type": "string"
                },
                "id": {
                    "description": "Unique uuid.UUID ID",
                    "type": "string"
                },
                "name": {
                    "description": "Name of Action",
                    "type": "string"
                }
            }
        },
        "models.Object": {
            "type": "object",
            "properties": {
                "id": {
                    "description": "Unique uuid.UUID ID",
                    "type": "string"
                },
                "name": {
                    "description": "Name of Object ('user', 'profile')",
                    "type": "string"
                }
            }
        },
        "models.Permission": {
            "type": "object",
            "properties": {
                "action": {
                    "description": "Action instance (not for database)",
                    "allOf": [
                        {
                            "$ref": "#/definitions/models.Action"
                        }
                    ]
                },
                "id": {
                    "description": "Unique uuid.UUID ID",
                    "type": "string"
                },
                "name": {
                    "description": "Name of Permission",
                    "type": "string"
                },
                "object": {
                    "description": "Object instance (not for database)",
                    "allOf": [
                        {
                            "$ref": "#/definitions/models.Object"
                        }
                    ]
                }
            }
        },
        "models.Resource": {
            "type": "object",
            "properties": {
                "description": {
                    "description": "Resource description",
                    "type": "string"
                },
                "id": {
                    "description": "Unique uuid.UUID ID",
                    "type": "string"
                },
                "name": {
                    "description": "Name of Resource",
                    "type": "string"
                },
                "roles": {
                    "description": "List of Role for this Resource",
                    "type": "array",
                    "items": {
                        "$ref": "#/definitions/models.Role"
                    }
                }
            }
        },
        "models.Role": {
            "type": "object",
            "properties": {
                "id": {
                    "description": "Unique uuid.UUID ID",
                    "type": "string"
                },
                "name": {
                    "description": "Name of Role",
                    "type": "string"
                },
                "permissions": {
                    "description": "List of Permission for Role",
                    "type": "array",
                    "items": {
                        "$ref": "#/definitions/models.Permission"
                    }
                }
            }
        },
        "models.User": {
            "type": "object",
            "properties": {
                "email": {
                    "description": "Unique User Email",
                    "type": "string"
                },
                "id": {
                    "description": "Unique uuid.UUID ID",
                    "type": "string"
                },
                "resources": {
                    "description": "Resource for this User",
                    "type": "array",
                    "items": {
                        "$ref": "#/definitions/models.Resource"
                    }
                },
                "roles": {
                    "description": "Roles for this User",
                    "type": "array",
                    "items": {
                        "$ref": "#/definitions/models.Role"
                    }
                },
                "username": {
                    "description": "Unique Username",
                    "type": "string"
                }
            }
        },
        "token.Tokens": {
            "type": "object",
            "properties": {
                "access": {
                    "type": "string"
                },
                "identity": {
                    "type": "string"
                },
                "refresh": {
                    "type": "string"
                }
            }
        },
        "utils.HTTPError": {
            "type": "object",
            "properties": {
                "message": {
                    "type": "string",
                    "example": "status bad request"
                }
            }
        }
    }
}